\relax 
\providecommand\hyper@newdestlabel[2]{}
\@writefile{toc}{\defcounter {refsection}{0}\relax }\@writefile{toc}{\contentsline {chapter}{\numberline {6}Geography}{19}{chapter.6}}
\@writefile{lof}{\defcounter {refsection}{0}\relax }\@writefile{lof}{\addvspace {10\p@ }}
\@writefile{lot}{\defcounter {refsection}{0}\relax }\@writefile{lot}{\addvspace {10\p@ }}
\@writefile{toc}{\defcounter {refsection}{0}\relax }\@writefile{toc}{\contentsline {section}{\numberline {6.1}Places}{19}{section.6.1}}
\@writefile{toc}{\defcounter {refsection}{0}\relax }\@writefile{toc}{\contentsline {subsection}{\numberline {6.1.1}Territories of Clan Wintermane}{19}{subsection.6.1.1}}
\newlabel{sub:territories_of_clan_wintermane}{{6.1.1}{19}{Territories of Clan Wintermane}{subsection.6.1.1}{}}
\@writefile{toc}{\defcounter {refsection}{0}\relax }\@writefile{toc}{\contentsline {subsubsection}{Culneary (from \emph  {C\IeC {\'u}l na n-Ionr\IeC {\'o}ir\IeC {\'\i }} or ``backs of the invaders'')}{19}{section*.14}}
\newlabel{ssub:culneary}{{6.1.1}{19}{Culneary \trans {Cúl na n-Ionróirí}{backs of the invaders}}{section*.14}{}}
\@writefile{toc}{\defcounter {refsection}{0}\relax }\@writefile{toc}{\contentsline {subsubsection}{Oldchurch, a.k.a. D\IeC {\'u}nl\IeC {\'e}inn (modernized from \emph  {} or ``the fort of civilization'')}{19}{section*.15}}
\newlabel{ssub:dunleinn}{{6.1.1}{19}{Oldchurch, a.k.a. Dúnléinn \modern {}{the fort of civilization}}{section*.15}{}}
\@writefile{toc}{\defcounter {refsection}{0}\relax }\@writefile{toc}{\contentsline {subsubsection}{Balbasht\IeC {\'\i } (from \emph  {Baile na B\IeC {\'a}ist\IeC {\'\i }} or ``home of the rains'')}{19}{section*.16}}
\newlabel{ssub:balbashti}{{6.1.1}{19}{Balbashtí \trans {Baile na Báistí}{home of the rains}}{section*.16}{}}
\@writefile{toc}{\defcounter {refsection}{0}\relax }\@writefile{toc}{\contentsline {subsubsection}{Cnoc Sinsear (from \emph  {Cnoc Sinsear} or ``Hill of the Progenitors'')}{19}{section*.17}}
\newlabel{ssub:cnoc_sinsear}{{6.1.1}{19}{Cnoc Sinsear \trans {Cnoc Sinsear}{Hill of the Progenitors}}{section*.17}{}}
\@writefile{toc}{\defcounter {refsection}{0}\relax }\@writefile{toc}{\contentsline {subsubsection}{Cillmhaighnean}{19}{section*.18}}
\newlabel{ssub:cillmhaighnean}{{6.1.1}{19}{Cillmhaighnean}{section*.18}{}}
\@writefile{toc}{\defcounter {refsection}{0}\relax }\@writefile{toc}{\contentsline {subsubsection}{Sos-h-\IeC {\'I}oren}{19}{section*.19}}
\newlabel{ssub:sos_h_ioren}{{6.1.1}{19}{Sos-h-Íoren}{section*.19}{}}
\@writefile{toc}{\defcounter {refsection}{0}\relax }\@writefile{toc}{\contentsline {subsubsection}{Rathgorclave}{20}{section*.20}}
\newlabel{ssub:rathgorclave}{{6.1.1}{20}{Rathgorclave}{section*.20}{}}
\@writefile{toc}{\defcounter {refsection}{0}\relax }\@writefile{toc}{\contentsline {subsubsection}{D\IeC {\'u}nshaghlin}{20}{section*.21}}
\newlabel{ssub:dunshaghlin}{{6.1.1}{20}{Dúnshaghlin}{section*.21}{}}
\@writefile{toc}{\defcounter {refsection}{0}\relax }\@writefile{toc}{\contentsline {subsection}{\numberline {6.1.2}Territories of Clan W\IeC {\'o}dblood}{20}{subsection.6.1.2}}
\newlabel{sub:territories_of_clan_wodblood}{{6.1.2}{20}{Territories of Clan Wódblood}{subsection.6.1.2}{}}
\@writefile{toc}{\defcounter {refsection}{0}\relax }\@writefile{toc}{\contentsline {subsubsection}{Colkirk}{20}{section*.22}}
\newlabel{ssub:colkirk}{{6.1.2}{20}{Colkirk}{section*.22}{}}
\@writefile{toc}{\defcounter {refsection}{0}\relax }\@writefile{toc}{\contentsline {subsubsection}{Wolf Hill}{20}{section*.23}}
\newlabel{ssub:wolf_hill}{{6.1.2}{20}{Wolf Hill}{section*.23}{}}
\@writefile{toc}{\defcounter {refsection}{0}\relax }\@writefile{toc}{\contentsline {subsubsection}{Ballysagart}{20}{section*.24}}
\newlabel{ssub:ballysagart}{{6.1.2}{20}{Ballysagart}{section*.24}{}}
\@writefile{toc}{\defcounter {refsection}{0}\relax }\@writefile{toc}{\contentsline {subsubsection}{Scarnagh}{20}{section*.25}}
\newlabel{ssub:scarnagh}{{6.1.2}{20}{Scarnagh}{section*.25}{}}
\@writefile{toc}{\defcounter {refsection}{0}\relax }\@writefile{toc}{\contentsline {subsubsection}{Halfway}{20}{section*.26}}
\newlabel{ssub:halfway}{{6.1.2}{20}{Halfway}{section*.26}{}}
\@writefile{toc}{\defcounter {refsection}{0}\relax }\@writefile{toc}{\contentsline {subsubsection}{Laytown}{20}{section*.27}}
\newlabel{ssub:laytown}{{6.1.2}{20}{Laytown}{section*.27}{}}
\@writefile{toc}{\defcounter {refsection}{0}\relax }\@writefile{toc}{\contentsline {subsubsection}{Mountkenne}{20}{section*.28}}
\newlabel{ssub:mountkenne}{{6.1.2}{20}{Mountkenne}{section*.28}{}}
\@writefile{toc}{\defcounter {refsection}{0}\relax }\@writefile{toc}{\contentsline {subsection}{\numberline {6.1.3}Territories of Clan Elmsborn}{20}{subsection.6.1.3}}
\newlabel{sub:territories_of_clan_elmsborn}{{6.1.3}{20}{Territories of Clan Elmsborn}{subsection.6.1.3}{}}
\@writefile{toc}{\defcounter {refsection}{0}\relax }\@writefile{toc}{\contentsline {subsubsection}{Rough Glasne}{20}{section*.29}}
\newlabel{ssub:rough_glasne}{{6.1.3}{20}{Rough Glasne}{section*.29}{}}
\@writefile{toc}{\defcounter {refsection}{0}\relax }\@writefile{toc}{\contentsline {subsubsection}{Cilltiarn\IeC {\'a}n}{20}{section*.30}}
\newlabel{ssub:cilltiarnan}{{6.1.3}{20}{Cilltiarnán}{section*.30}{}}
\@writefile{toc}{\defcounter {refsection}{0}\relax }\@writefile{toc}{\contentsline {subsubsection}{Laghale \IeC {\'A}rda}{20}{section*.31}}
\newlabel{ssub:laghale_arda}{{6.1.3}{20}{Laghale Árda}{section*.31}{}}
\@writefile{toc}{\defcounter {refsection}{0}\relax }\@writefile{toc}{\contentsline {subsubsection}{Sligory}{20}{section*.32}}
\newlabel{ssub:sligory}{{6.1.3}{20}{Sligory}{section*.32}{}}
\@writefile{toc}{\defcounter {refsection}{0}\relax }\@writefile{toc}{\contentsline {subsubsection}{Ballygolen}{20}{section*.33}}
\newlabel{ssub:ballygolen}{{6.1.3}{20}{Ballygolen}{section*.33}{}}
\@writefile{toc}{\defcounter {refsection}{0}\relax }\@writefile{toc}{\contentsline {subsubsection}{Talbogan (from \emph  {Talamh an Bheag\IeC {\'a}n} or ``land of the few'')}{20}{section*.34}}
\newlabel{ssub:talbogan}{{6.1.3}{20}{Talbogan \trans {Talamh an Bheagán}{land of the few}}{section*.34}{}}
\@setckpt{chapters/geography}{
\setcounter{page}{21}
\setcounter{equation}{0}
\setcounter{enumi}{0}
\setcounter{enumii}{0}
\setcounter{enumiii}{0}
\setcounter{enumiv}{0}
\setcounter{footnote}{0}
\setcounter{mpfootnote}{0}
\setcounter{part}{0}
\setcounter{chapter}{6}
\setcounter{section}{1}
\setcounter{subsection}{3}
\setcounter{subsubsection}{0}
\setcounter{paragraph}{0}
\setcounter{subparagraph}{0}
\setcounter{figure}{0}
\setcounter{table}{0}
\setcounter{lstnumber}{1}
\setcounter{float@type}{8}
\setcounter{vslineno}{11}
\setcounter{poemline}{11}
\setcounter{fvsline}{0}
\setcounter{modulo@vs}{0}
\setcounter{verse@envctr}{1}
\setcounter{chrsinstr}{0}
\setcounter{Item}{0}
\setcounter{Hfootnote}{0}
\setcounter{bookmark@seq@number}{52}
\setcounter{DefaultLines}{4}
\setcounter{DefaultDepth}{0}
\setcounter{L@lines}{5}
\setcounter{L@depth}{0}
\setcounter{tabx@nest}{0}
\setcounter{listtotal}{0}
\setcounter{listcount}{0}
\setcounter{liststart}{0}
\setcounter{liststop}{0}
\setcounter{citecount}{0}
\setcounter{citetotal}{0}
\setcounter{multicitecount}{0}
\setcounter{multicitetotal}{0}
\setcounter{instcount}{0}
\setcounter{maxnames}{3}
\setcounter{minnames}{1}
\setcounter{maxitems}{3}
\setcounter{minitems}{1}
\setcounter{citecounter}{0}
\setcounter{maxcitecounter}{0}
\setcounter{savedcitecounter}{0}
\setcounter{uniquelist}{0}
\setcounter{uniquename}{0}
\setcounter{refsection}{0}
\setcounter{refsegment}{0}
\setcounter{maxextratitle}{0}
\setcounter{maxextratitleyear}{0}
\setcounter{maxextraname}{0}
\setcounter{maxextradate}{0}
\setcounter{maxextraalpha}{0}
\setcounter{abbrvpenalty}{50}
\setcounter{highnamepenalty}{50}
\setcounter{lownamepenalty}{25}
\setcounter{maxparens}{3}
\setcounter{parenlevel}{0}
\setcounter{mincomprange}{10}
\setcounter{maxcomprange}{100000}
\setcounter{mincompwidth}{1}
\setcounter{afterword}{0}
\setcounter{savedafterword}{0}
\setcounter{annotator}{0}
\setcounter{savedannotator}{0}
\setcounter{author}{0}
\setcounter{savedauthor}{0}
\setcounter{bookauthor}{0}
\setcounter{savedbookauthor}{0}
\setcounter{commentator}{0}
\setcounter{savedcommentator}{0}
\setcounter{editor}{0}
\setcounter{savededitor}{0}
\setcounter{editora}{0}
\setcounter{savededitora}{0}
\setcounter{editorb}{0}
\setcounter{savededitorb}{0}
\setcounter{editorc}{0}
\setcounter{savededitorc}{0}
\setcounter{foreword}{0}
\setcounter{savedforeword}{0}
\setcounter{holder}{0}
\setcounter{savedholder}{0}
\setcounter{introduction}{0}
\setcounter{savedintroduction}{0}
\setcounter{namea}{0}
\setcounter{savednamea}{0}
\setcounter{nameb}{0}
\setcounter{savednameb}{0}
\setcounter{namec}{0}
\setcounter{savednamec}{0}
\setcounter{translator}{0}
\setcounter{savedtranslator}{0}
\setcounter{shortauthor}{0}
\setcounter{savedshortauthor}{0}
\setcounter{shorteditor}{0}
\setcounter{savedshorteditor}{0}
\setcounter{labelname}{0}
\setcounter{savedlabelname}{0}
\setcounter{institution}{0}
\setcounter{savedinstitution}{0}
\setcounter{lista}{0}
\setcounter{savedlista}{0}
\setcounter{listb}{0}
\setcounter{savedlistb}{0}
\setcounter{listc}{0}
\setcounter{savedlistc}{0}
\setcounter{listd}{0}
\setcounter{savedlistd}{0}
\setcounter{liste}{0}
\setcounter{savedliste}{0}
\setcounter{listf}{0}
\setcounter{savedlistf}{0}
\setcounter{location}{0}
\setcounter{savedlocation}{0}
\setcounter{organization}{0}
\setcounter{savedorganization}{0}
\setcounter{origlocation}{0}
\setcounter{savedoriglocation}{0}
\setcounter{origpublisher}{0}
\setcounter{savedorigpublisher}{0}
\setcounter{publisher}{0}
\setcounter{savedpublisher}{0}
\setcounter{language}{0}
\setcounter{savedlanguage}{0}
\setcounter{origlanguage}{0}
\setcounter{savedoriglanguage}{0}
\setcounter{pageref}{0}
\setcounter{savedpageref}{0}
\setcounter{textcitecount}{0}
\setcounter{textcitetotal}{0}
\setcounter{textcitemaxnames}{0}
\setcounter{biburlnumpenalty}{9000}
\setcounter{biburlucpenalty}{9000}
\setcounter{biburllcpenalty}{5000}
\setcounter{smartand}{1}
\setcounter{bbx:relatedcount}{0}
\setcounter{bbx:relatedtotal}{0}
\setcounter{parentequation}{0}
\setcounter{su@anzahl}{0}
\setcounter{LT@tables}{0}
\setcounter{LT@chunks}{0}
\setcounter{lstlisting}{0}
\setcounter{section@level}{3}
}
